EESchema Schematic File Version 2
LIBS:hp48
LIBS:power
LIBS:device
LIBS:transistors
LIBS:conn
LIBS:linear
LIBS:regul
LIBS:74xx
LIBS:cmos4000
LIBS:adc-dac
LIBS:memory
LIBS:xilinx
LIBS:microcontrollers
LIBS:dsp
LIBS:microchip
LIBS:analog_switches
LIBS:motorola
LIBS:texas
LIBS:intel
LIBS:audio
LIBS:interface
LIBS:digital-audio
LIBS:philips
LIBS:display
LIBS:cypress
LIBS:siliconi
LIBS:opto
LIBS:atmel
LIBS:contrib
LIBS:valves
LIBS:switches
LIBS:RamCard48_512KB-cache
EELAYER 25 0
EELAYER END
$Descr A4 11693 8268
encoding utf-8
Sheet 1 1
Title "RC48-512"
Date "2017-04-23"
Rev "0"
Comp "Copyright 2017 Paul Onions"
Comment1 ""
Comment2 "A 512KB RAM card for the HP48GX calculator."
Comment3 ""
Comment4 "CloudyCat RC48-512"
$EndDescr
Wire Wire Line
	2150 2100 3000 2100
Wire Wire Line
	2150 2200 3000 2200
Wire Wire Line
	2150 2300 3000 2300
Wire Wire Line
	2150 2400 3000 2400
Wire Wire Line
	2150 2500 3000 2500
Wire Wire Line
	2150 2600 3000 2600
Wire Wire Line
	2150 2700 3000 2700
Wire Wire Line
	2150 2800 3000 2800
Wire Wire Line
	2150 2900 3000 2900
Wire Wire Line
	2150 3000 3000 3000
Wire Wire Line
	2150 3100 3000 3100
Wire Wire Line
	2150 3200 3000 3200
Wire Wire Line
	2150 3300 3000 3300
Wire Wire Line
	2150 3400 3000 3400
Wire Wire Line
	2150 3500 3000 3500
Wire Wire Line
	2150 3600 3000 3600
Wire Wire Line
	2150 3700 3000 3700
$Comp
L HP48GX_Slot1 P1
U 1 1 58D59268
P 1950 3850
F 0 "P1" H 2100 5950 50  0000 C CNN
F 1 "HP48GX_Slot1" H 2100 1750 50  0000 C CNN
F 2 "HP48:HP48_Slot" H 1950 3850 50  0001 C CNN
F 3 "" H 1950 3850 50  0000 C CNN
	1    1950 3850
	-1   0    0    -1  
$EndComp
Text Label 2750 2100 0    60   ~ 0
A0
Text Label 2750 2200 0    60   ~ 0
A1
Text Label 2750 3700 0    60   ~ 0
A16
Wire Wire Line
	7750 2650 8150 2650
Wire Wire Line
	7750 2750 8150 2750
Wire Wire Line
	7750 2850 8150 2850
Wire Wire Line
	7750 2950 8150 2950
Wire Wire Line
	7750 3050 8150 3050
Wire Wire Line
	7750 3150 8150 3150
Wire Wire Line
	7750 3250 8150 3250
Wire Wire Line
	7750 3350 8150 3350
Wire Wire Line
	7750 3450 8150 3450
Wire Wire Line
	7750 3550 8150 3550
Wire Wire Line
	7750 3650 8150 3650
Wire Wire Line
	7750 3750 8150 3750
Wire Wire Line
	7750 3850 8150 3850
Wire Wire Line
	7750 3950 8150 3950
Wire Wire Line
	7750 4050 8150 4050
Wire Wire Line
	7750 4150 8150 4150
Wire Wire Line
	7750 4250 8150 4250
Text Label 2750 2300 0    60   ~ 0
A2
Text Label 2750 2400 0    60   ~ 0
A3
Text Label 2750 2500 0    60   ~ 0
A4
Text Label 2750 2600 0    60   ~ 0
A5
Text Label 2750 2700 0    60   ~ 0
A6
Text Label 2750 2800 0    60   ~ 0
A7
Text Label 2750 2900 0    60   ~ 0
A8
Text Label 2750 3000 0    60   ~ 0
A9
Text Label 2750 3100 0    60   ~ 0
A10
Text Label 2750 3200 0    60   ~ 0
A11
Text Label 2750 3300 0    60   ~ 0
A12
Text Label 2750 3400 0    60   ~ 0
A13
Text Label 2750 3500 0    60   ~ 0
A14
Text Label 2750 3600 0    60   ~ 0
A15
Text Label 7800 2650 0    60   ~ 0
A10
Text Label 7800 2750 0    60   ~ 0
A16
Text Label 7800 2850 0    60   ~ 0
A9
Text Label 7800 2950 0    60   ~ 0
A15
Text Label 7800 3050 0    60   ~ 0
A8
Text Label 7800 3150 0    60   ~ 0
A12
Text Label 7800 3250 0    60   ~ 0
A11
Text Label 7800 3350 0    60   ~ 0
A13
Text Label 7800 3450 0    60   ~ 0
A14
Text Label 7800 3550 0    60   ~ 0
A7
Text Label 7800 3650 0    60   ~ 0
A6
Text Label 7800 3750 0    60   ~ 0
A5
Text Label 7800 3850 0    60   ~ 0
A4
Text Label 7800 3950 0    60   ~ 0
A3
Text Label 7800 4050 0    60   ~ 0
A2
Text Label 7800 4150 0    60   ~ 0
A1
Text Label 7800 4250 0    60   ~ 0
A0
Wire Wire Line
	2150 4100 2500 4100
Wire Wire Line
	2150 4200 2500 4200
Wire Wire Line
	2150 4300 2500 4300
Wire Wire Line
	2150 4400 2500 4400
Wire Wire Line
	2150 4500 2500 4500
Wire Wire Line
	2150 4600 2500 4600
Wire Wire Line
	2150 4700 2500 4700
Wire Wire Line
	2150 4800 2500 4800
Wire Wire Line
	9350 4250 9650 4250
Wire Wire Line
	9650 4150 9350 4150
Wire Wire Line
	9350 4050 9650 4050
Wire Wire Line
	9650 3950 9350 3950
Wire Wire Line
	9350 3850 9650 3850
Wire Wire Line
	9650 3750 9350 3750
Wire Wire Line
	9350 3650 9650 3650
Wire Wire Line
	9650 3550 9350 3550
Text Label 9500 3550 0    60   ~ 0
D7
Text Label 9500 3650 0    60   ~ 0
D6
Text Label 9500 3750 0    60   ~ 0
D5
Text Label 9500 3850 0    60   ~ 0
D4
Text Label 9500 3950 0    60   ~ 0
D3
Text Label 9500 4050 0    60   ~ 0
D0
Text Label 9500 4150 0    60   ~ 0
D1
Text Label 9500 4250 0    60   ~ 0
D2
Wire Wire Line
	2150 4000 3800 4000
Wire Wire Line
	3800 4000 3800 5200
$Comp
L GND #PWR01
U 1 1 58D68095
P 2400 5900
F 0 "#PWR01" H 2400 5650 50  0001 C CNN
F 1 "GND" H 2400 5750 50  0000 C CNN
F 2 "" H 2400 5900 50  0000 C CNN
F 3 "" H 2400 5900 50  0000 C CNN
	1    2400 5900
	1    0    0    -1  
$EndComp
Wire Wire Line
	2400 5800 2150 5800
Wire Wire Line
	2400 5800 2400 5900
$Comp
L GND #PWR02
U 1 1 58D681EC
P 9750 3100
F 0 "#PWR02" H 9750 2850 50  0001 C CNN
F 1 "GND" H 9750 2950 50  0000 C CNN
F 2 "" H 9750 3100 50  0000 C CNN
F 3 "" H 9750 3100 50  0000 C CNN
	1    9750 3100
	1    0    0    -1  
$EndComp
$Comp
L CY62148ELL-45ZSXI U1
U 1 1 58D6841E
P 8750 3750
F 0 "U1" H 8750 5250 60  0000 C CNN
F 1 "CY62148ELL-45ZSXI" H 8750 2650 60  0000 C CNN
F 2 "HP48:TSOP-II-32_21.0x10.2mm_Pitch1.27mm" H 8600 5050 60  0001 C CNN
F 3 "" H 8600 5050 60  0001 C CNN
	1    8750 3750
	1    0    0    -1  
$EndComp
Wire Wire Line
	3800 5200 7600 5200
$Comp
L Battery_Cell BT1
U 1 1 58D686C9
P 3000 1350
F 0 "BT1" H 3100 1450 50  0000 L CNN
F 1 "CR2016" H 3100 1350 50  0000 L CNN
F 2 "HP48:KS3026" V 3000 1410 50  0001 C CNN
F 3 "" V 3000 1410 50  0000 C CNN
	1    3000 1350
	1    0    0    -1  
$EndComp
$Comp
L GND #PWR03
U 1 1 58D6B678
P 3000 1500
F 0 "#PWR03" H 3000 1250 50  0001 C CNN
F 1 "GND" H 3000 1350 50  0000 C CNN
F 2 "" H 3000 1500 50  0000 C CNN
F 3 "" H 3000 1500 50  0000 C CNN
	1    3000 1500
	1    0    0    -1  
$EndComp
$Comp
L VCC #PWR04
U 1 1 58D6B85D
P 5050 1200
F 0 "#PWR04" H 5050 1050 50  0001 C CNN
F 1 "VCC" H 5050 1350 50  0000 C CNN
F 2 "" H 5050 1200 50  0000 C CNN
F 3 "" H 5050 1200 50  0000 C CNN
	1    5050 1200
	1    0    0    -1  
$EndComp
$Comp
L R R1
U 1 1 58D6B8C9
P 2400 1350
F 0 "R1" V 2480 1350 50  0000 C CNN
F 1 "1M" V 2400 1350 50  0000 C CNN
F 2 "Resistors_SMD:R_0805_HandSoldering" V 2330 1350 50  0001 C CNN
F 3 "" H 2400 1350 50  0000 C CNN
	1    2400 1350
	1    0    0    -1  
$EndComp
Wire Wire Line
	2400 1500 2400 2000
Wire Wire Line
	2400 2000 2150 2000
$Comp
L VCC #PWR05
U 1 1 58D6B9A8
P 9750 2600
F 0 "#PWR05" H 9750 2450 50  0001 C CNN
F 1 "VCC" H 9750 2750 50  0000 C CNN
F 2 "" H 9750 2600 50  0000 C CNN
F 3 "" H 9750 2600 50  0000 C CNN
	1    9750 2600
	1    0    0    -1  
$EndComp
Wire Wire Line
	3000 1450 3000 1500
Wire Wire Line
	3000 1150 3000 1000
Wire Wire Line
	4450 2450 8150 2450
Wire Wire Line
	3600 5000 2150 5000
Wire Wire Line
	3600 3000 3600 5000
$Comp
L R R2
U 1 1 58D6D764
P 3850 2650
F 0 "R2" V 3930 2650 50  0000 C CNN
F 1 "47k" V 3850 2650 50  0000 C CNN
F 2 "Resistors_SMD:R_0805_HandSoldering" V 3780 2650 50  0001 C CNN
F 3 "" H 3850 2650 50  0000 C CNN
	1    3850 2650
	-1   0    0    -1  
$EndComp
Wire Wire Line
	5300 2550 8150 2550
Wire Wire Line
	5300 2550 5300 3500
Wire Wire Line
	3700 4900 3700 3500
Wire Wire Line
	2150 4900 3700 4900
Text Label 3200 1900 0    60   ~ 0
VccOn
$Comp
L R R11
U 1 1 58D6DD51
P 4000 5800
F 0 "R11" V 4080 5800 50  0000 C CNN
F 1 "47k" V 4000 5800 50  0000 C CNN
F 2 "Resistors_SMD:R_0805_HandSoldering" V 3930 5800 50  0001 C CNN
F 3 "" H 4000 5800 50  0000 C CNN
	1    4000 5800
	1    0    0    -1  
$EndComp
Wire Wire Line
	4000 5950 4000 6750
Wire Wire Line
	4000 5550 4000 5650
Text Label 4250 5550 0    60   ~ 0
VccOn
$Comp
L R R14
U 1 1 58D6E57D
P 4000 6900
F 0 "R14" V 4080 6900 50  0000 C CNN
F 1 "47k" V 4000 6900 50  0000 C CNN
F 2 "Resistors_SMD:R_0805_HandSoldering" V 3930 6900 50  0001 C CNN
F 3 "" H 4000 6900 50  0000 C CNN
	1    4000 6900
	1    0    0    -1  
$EndComp
$Comp
L R R13
U 1 1 58D6E5B8
P 3800 6900
F 0 "R13" V 3880 6900 50  0000 C CNN
F 1 "47k" V 3800 6900 50  0000 C CNN
F 2 "Resistors_SMD:R_0805_HandSoldering" V 3730 6900 50  0001 C CNN
F 3 "" H 3800 6900 50  0000 C CNN
	1    3800 6900
	1    0    0    -1  
$EndComp
$Comp
L R R12
U 1 1 58D6E5ED
P 3600 6900
F 0 "R12" V 3680 6900 50  0000 C CNN
F 1 "47k" V 3600 6900 50  0000 C CNN
F 2 "Resistors_SMD:R_0805_HandSoldering" V 3530 6900 50  0001 C CNN
F 3 "" H 3600 6900 50  0000 C CNN
	1    3600 6900
	1    0    0    -1  
$EndComp
$Comp
L R R9
U 1 1 58D6E622
P 3600 5800
F 0 "R9" V 3680 5800 50  0000 C CNN
F 1 "47k" V 3600 5800 50  0000 C CNN
F 2 "Resistors_SMD:R_0805_HandSoldering" V 3530 5800 50  0001 C CNN
F 3 "" H 3600 5800 50  0000 C CNN
	1    3600 5800
	1    0    0    -1  
$EndComp
$Comp
L R R10
U 1 1 58D6E657
P 3800 5800
F 0 "R10" V 3880 5800 50  0000 C CNN
F 1 "47k" V 3800 5800 50  0000 C CNN
F 2 "Resistors_SMD:R_0805_HandSoldering" V 3730 5800 50  0001 C CNN
F 3 "" H 3800 5800 50  0000 C CNN
	1    3800 5800
	1    0    0    -1  
$EndComp
Wire Wire Line
	3600 5650 3600 5550
Wire Wire Line
	3600 5550 4250 5550
Wire Wire Line
	3800 5650 3800 5550
Connection ~ 3800 5550
Connection ~ 4000 5550
Wire Wire Line
	3600 5950 3600 6050
Wire Wire Line
	3800 5950 3800 6750
Wire Wire Line
	2900 6500 3800 6500
Connection ~ 3800 6500
Wire Wire Line
	2800 6600 4000 6600
Connection ~ 4000 6600
$Comp
L GND #PWR06
U 1 1 58D6EB86
P 3600 7150
F 0 "#PWR06" H 3600 6900 50  0001 C CNN
F 1 "GND" H 3600 7000 50  0000 C CNN
F 2 "" H 3600 7150 50  0000 C CNN
F 3 "" H 3600 7150 50  0000 C CNN
	1    3600 7150
	1    0    0    -1  
$EndComp
$Comp
L GND #PWR07
U 1 1 58D6EBBC
P 3800 7150
F 0 "#PWR07" H 3800 6900 50  0001 C CNN
F 1 "GND" H 3800 7000 50  0000 C CNN
F 2 "" H 3800 7150 50  0000 C CNN
F 3 "" H 3800 7150 50  0000 C CNN
	1    3800 7150
	1    0    0    -1  
$EndComp
$Comp
L GND #PWR08
U 1 1 58D6EBF2
P 4000 7150
F 0 "#PWR08" H 4000 6900 50  0001 C CNN
F 1 "GND" H 4000 7000 50  0000 C CNN
F 2 "" H 4000 7150 50  0000 C CNN
F 3 "" H 4000 7150 50  0000 C CNN
	1    4000 7150
	1    0    0    -1  
$EndComp
Wire Wire Line
	3600 7150 3600 7050
Wire Wire Line
	3800 7050 3800 7150
Wire Wire Line
	4000 7150 4000 7050
Text Notes 4150 6200 0    47   ~ 0
Do not populate:\nR10, R11, R13, R14.
$Comp
L BAT54C D1
U 1 1 58D6FAFF
P 4550 1400
F 0 "D1" H 4600 1300 50  0000 C CNN
F 1 "BAT54C" H 4550 1500 50  0000 C CNN
F 2 "TO_SOT_Packages_SMD:SOT-23_Handsoldering" H 4550 1400 50  0001 C CNN
F 3 "" H 4550 1400 50  0000 C CNN
	1    4550 1400
	0    -1   -1   0   
$EndComp
Wire Wire Line
	4550 1900 4550 1700
Wire Wire Line
	4550 1000 4550 1100
$Comp
L SW_SPDT SW1
U 1 1 58D70CC7
P 3400 6150
F 0 "SW1" H 3400 6320 50  0000 C CNN
F 1 "SPDT" H 3400 5950 50  0000 C CNN
F 2 "HP48:PCM12SMTR" H 3400 6150 50  0001 C CNN
F 3 "" H 3400 6150 50  0000 C CNN
	1    3400 6150
	1    0    0    -1  
$EndComp
Wire Wire Line
	4000 5100 7500 5100
Wire Wire Line
	2150 1900 4550 1900
Wire Wire Line
	2400 1200 2400 1000
Wire Wire Line
	2400 1000 4550 1000
Connection ~ 3000 1000
$Comp
L C C2
U 1 1 58D7399F
P 5050 1650
F 0 "C2" H 5075 1750 50  0000 L CNN
F 1 "220nF" H 5075 1550 50  0000 L CNN
F 2 "Capacitors_SMD:C_0805_HandSoldering" H 5088 1500 50  0001 C CNN
F 3 "" H 5050 1650 50  0000 C CNN
	1    5050 1650
	1    0    0    -1  
$EndComp
$Comp
L GND #PWR09
U 1 1 58D73A7E
P 5050 1900
F 0 "#PWR09" H 5050 1650 50  0001 C CNN
F 1 "GND" H 5050 1750 50  0000 C CNN
F 2 "" H 5050 1900 50  0000 C CNN
F 3 "" H 5050 1900 50  0000 C CNN
	1    5050 1900
	1    0    0    -1  
$EndComp
Wire Wire Line
	5050 1900 5050 1800
Wire Wire Line
	5050 1200 5050 1500
$Comp
L C C3
U 1 1 58D78792
P 9750 2850
F 0 "C3" H 9775 2950 50  0000 L CNN
F 1 "220nF" H 9775 2750 50  0000 L CNN
F 2 "Capacitors_SMD:C_0805_HandSoldering" H 9788 2700 50  0001 C CNN
F 3 "" H 9750 2850 50  0000 C CNN
	1    9750 2850
	1    0    0    -1  
$EndComp
Wire Wire Line
	9750 2600 9750 2700
Wire Wire Line
	9750 3000 9750 3100
Wire Wire Line
	9350 2850 9450 2850
Wire Wire Line
	9450 2850 9450 3050
Wire Wire Line
	9450 3050 9750 3050
Connection ~ 9750 3050
Wire Wire Line
	9350 2650 9750 2650
Connection ~ 9750 2650
$Comp
L GND #PWR010
U 1 1 58D79674
P 3850 3200
F 0 "#PWR010" H 3850 2950 50  0001 C CNN
F 1 "GND" H 3850 3050 50  0000 C CNN
F 2 "" H 3850 3200 50  0000 C CNN
F 3 "" H 3850 3200 50  0000 C CNN
	1    3850 3200
	-1   0    0    -1  
$EndComp
$Comp
L GND #PWR011
U 1 1 58D796B4
P 4700 3700
F 0 "#PWR011" H 4700 3450 50  0001 C CNN
F 1 "GND" H 4700 3550 50  0000 C CNN
F 2 "" H 4700 3700 50  0000 C CNN
F 3 "" H 4700 3700 50  0000 C CNN
	1    4700 3700
	-1   0    0    -1  
$EndComp
Wire Wire Line
	3950 3100 3850 3100
Wire Wire Line
	4800 3600 4700 3600
$Comp
L R R3
U 1 1 58D7995E
P 4700 3150
F 0 "R3" V 4780 3150 50  0000 C CNN
F 1 "47k" V 4700 3150 50  0000 C CNN
F 2 "Resistors_SMD:R_0805_HandSoldering" V 4630 3150 50  0001 C CNN
F 3 "" H 4700 3150 50  0000 C CNN
	1    4700 3150
	-1   0    0    -1  
$EndComp
Wire Wire Line
	3950 2900 3850 2900
Wire Wire Line
	3850 2900 3850 2800
Wire Wire Line
	4800 3400 4700 3400
Wire Wire Line
	4700 3400 4700 3300
$Comp
L VCC #PWR012
U 1 1 58D79D4A
P 3850 2400
F 0 "#PWR012" H 3850 2250 50  0001 C CNN
F 1 "VCC" H 3850 2550 50  0000 C CNN
F 2 "" H 3850 2400 50  0000 C CNN
F 3 "" H 3850 2400 50  0000 C CNN
	1    3850 2400
	-1   0    0    -1  
$EndComp
$Comp
L VCC #PWR013
U 1 1 58D79DE3
P 4700 2900
F 0 "#PWR013" H 4700 2750 50  0001 C CNN
F 1 "VCC" H 4700 3050 50  0000 C CNN
F 2 "" H 4700 2900 50  0000 C CNN
F 3 "" H 4700 2900 50  0000 C CNN
	1    4700 2900
	-1   0    0    -1  
$EndComp
Wire Wire Line
	3850 2400 3850 2500
Wire Wire Line
	4700 3000 4700 2900
Wire Wire Line
	4700 3600 4700 3700
Wire Wire Line
	3850 3100 3850 3200
Wire Wire Line
	3700 3500 4800 3500
Wire Wire Line
	4450 2450 4450 3000
Wire Wire Line
	4450 3000 4350 3000
Wire Wire Line
	3950 3000 3600 3000
Wire Wire Line
	2150 3800 4000 3800
Wire Wire Line
	4000 3800 4000 5100
Wire Wire Line
	3000 6150 3000 5500
Wire Wire Line
	3000 5500 2150 5500
Wire Wire Line
	2150 5600 2900 5600
Wire Wire Line
	2900 5600 2900 6500
Wire Wire Line
	2800 6600 2800 5700
Wire Wire Line
	2800 5700 2150 5700
$Comp
L GND #PWR014
U 1 1 58D9C184
P 6550 4150
F 0 "#PWR014" H 6550 3900 50  0001 C CNN
F 1 "GND" H 6550 4000 50  0000 C CNN
F 2 "" H 6550 4150 50  0000 C CNN
F 3 "" H 6550 4150 50  0000 C CNN
	1    6550 4150
	1    0    0    -1  
$EndComp
Wire Wire Line
	6550 4050 6550 4150
$Comp
L R R4
U 1 1 58D9C2C6
P 6550 3300
F 0 "R4" V 6630 3300 50  0000 C CNN
F 1 "4k7" V 6550 3300 50  0000 C CNN
F 2 "Resistors_SMD:R_0805_HandSoldering" V 6480 3300 50  0001 C CNN
F 3 "" H 6550 3300 50  0000 C CNN
	1    6550 3300
	1    0    0    -1  
$EndComp
$Comp
L VCC #PWR015
U 1 1 58D9C3C7
P 6550 3050
F 0 "#PWR015" H 6550 2900 50  0001 C CNN
F 1 "VCC" H 6550 3200 50  0000 C CNN
F 2 "" H 6550 3050 50  0000 C CNN
F 3 "" H 6550 3050 50  0000 C CNN
	1    6550 3050
	1    0    0    -1  
$EndComp
Wire Wire Line
	6550 3150 6550 3050
Wire Wire Line
	6550 3450 6550 3650
Wire Wire Line
	6550 3550 6950 3550
Wire Wire Line
	6950 3550 6950 4450
Wire Wire Line
	6950 4450 8150 4450
Connection ~ 6550 3550
Wire Wire Line
	2150 3900 3900 3900
Wire Wire Line
	3900 3900 3900 4100
Wire Wire Line
	6050 3850 6050 4100
Wire Wire Line
	6050 3850 6250 3850
$Comp
L Q_NPN_BEC Q1
U 1 1 58DACFBE
P 6450 3850
F 0 "Q1" H 6650 3900 50  0000 L CNN
F 1 "BC847" H 6650 3800 50  0000 L CNN
F 2 "TO_SOT_Packages_SMD:SOT-23_Handsoldering" H 6650 3950 50  0001 C CNN
F 3 "" H 6450 3850 50  0000 C CNN
	1    6450 3850
	1    0    0    -1  
$EndComp
$Comp
L R R6
U 1 1 58DAD052
P 6300 4100
F 0 "R6" V 6380 4100 50  0000 C CNN
F 1 "10k" V 6300 4100 50  0000 C CNN
F 2 "Resistors_SMD:R_0805_HandSoldering" V 6230 4100 50  0001 C CNN
F 3 "" H 6300 4100 50  0000 C CNN
	1    6300 4100
	0    1    1    0   
$EndComp
Wire Wire Line
	5900 4100 6150 4100
Connection ~ 6050 4100
Wire Wire Line
	6450 4100 6550 4100
Connection ~ 6550 4100
$Comp
L SW_SP3T SW2
U 1 1 58DBFFD8
P 4150 3000
F 0 "SW2" H 4150 3200 50  0000 C CNN
F 1 "SW_SP3T" H 4150 2800 50  0000 C CNN
F 2 "HP48:PCM13SMTR" H 3525 3175 50  0001 C CNN
F 3 "" H 3525 3175 50  0000 C CNN
	1    4150 3000
	-1   0    0    -1  
$EndComp
$Comp
L SW_SP3T SW3
U 1 1 58DC0027
P 5000 3500
F 0 "SW3" H 5000 3700 50  0000 C CNN
F 1 "SW_SP3T" H 5000 3300 50  0000 C CNN
F 2 "HP48:PCM13SMTR" H 4375 3675 50  0001 C CNN
F 3 "" H 4375 3675 50  0000 C CNN
	1    5000 3500
	-1   0    0    -1  
$EndComp
Wire Wire Line
	5300 3500 5200 3500
NoConn ~ 2150 5100
NoConn ~ 2150 5200
NoConn ~ 2150 5300
NoConn ~ 2150 5400
$Comp
L PWR_FLAG #FLG016
U 1 1 58DC42BE
P 6400 1400
F 0 "#FLG016" H 6400 1495 50  0001 C CNN
F 1 "PWR_FLAG" H 6400 1580 50  0000 C CNN
F 2 "" H 6400 1400 50  0000 C CNN
F 3 "" H 6400 1400 50  0000 C CNN
	1    6400 1400
	1    0    0    1   
$EndComp
$Comp
L VCC #PWR017
U 1 1 58DC44C9
P 6400 1400
F 0 "#PWR017" H 6400 1250 50  0001 C CNN
F 1 "VCC" H 6400 1550 50  0000 C CNN
F 2 "" H 6400 1400 50  0000 C CNN
F 3 "" H 6400 1400 50  0000 C CNN
	1    6400 1400
	1    0    0    -1  
$EndComp
$Comp
L PWR_FLAG #FLG018
U 1 1 58DC45BD
P 6900 1450
F 0 "#FLG018" H 6900 1545 50  0001 C CNN
F 1 "PWR_FLAG" H 6900 1630 50  0000 C CNN
F 2 "" H 6900 1450 50  0000 C CNN
F 3 "" H 6900 1450 50  0000 C CNN
	1    6900 1450
	1    0    0    -1  
$EndComp
$Comp
L GND #PWR019
U 1 1 58DC45FF
P 6900 1450
F 0 "#PWR019" H 6900 1200 50  0001 C CNN
F 1 "GND" H 6900 1300 50  0000 C CNN
F 2 "" H 6900 1450 50  0000 C CNN
F 3 "" H 6900 1450 50  0000 C CNN
	1    6900 1450
	1    0    0    -1  
$EndComp
$Comp
L R R5
U 1 1 58DD57B5
P 5750 4100
F 0 "R5" V 5830 4100 50  0000 C CNN
F 1 "10k" V 5750 4100 50  0000 C CNN
F 2 "Resistors_SMD:R_0805_HandSoldering" V 5680 4100 50  0001 C CNN
F 3 "" H 5750 4100 50  0000 C CNN
	1    5750 4100
	0    1    1    0   
$EndComp
Wire Wire Line
	3900 4100 5600 4100
$Comp
L CP C1
U 1 1 58DEAC1E
P 3650 1250
F 0 "C1" H 3675 1350 50  0000 L CNN
F 1 "33uF" H 3675 1150 50  0000 L CNN
F 2 "SMD_Packages:SMD-1206_Pol" H 3688 1100 50  0001 C CNN
F 3 "" H 3650 1250 50  0000 C CNN
	1    3650 1250
	1    0    0    -1  
$EndComp
$Comp
L GND #PWR020
U 1 1 58DF5F5B
P 3650 1500
F 0 "#PWR020" H 3650 1250 50  0001 C CNN
F 1 "GND" H 3650 1350 50  0000 C CNN
F 2 "" H 3650 1500 50  0000 C CNN
F 3 "" H 3650 1500 50  0000 C CNN
	1    3650 1500
	1    0    0    -1  
$EndComp
Wire Wire Line
	3650 1400 3650 1500
Wire Wire Line
	3650 1100 3650 1000
Connection ~ 3650 1000
Wire Wire Line
	4750 1400 5050 1400
Connection ~ 5050 1400
Wire Wire Line
	3000 6150 3200 6150
Wire Wire Line
	3600 6750 3600 6250
$Comp
L R R7
U 1 1 58E22131
P 4900 4750
F 0 "R7" V 4980 4750 50  0000 C CNN
F 1 "47k" V 4900 4750 50  0000 C CNN
F 2 "Resistors_SMD:R_0805_HandSoldering" V 4830 4750 50  0001 C CNN
F 3 "" H 4900 4750 50  0000 C CNN
	1    4900 4750
	1    0    0    -1  
$EndComp
$Comp
L VCC #PWR021
U 1 1 58E22137
P 4900 4500
F 0 "#PWR021" H 4900 4350 50  0001 C CNN
F 1 "VCC" H 4900 4650 50  0000 C CNN
F 2 "" H 4900 4500 50  0000 C CNN
F 3 "" H 4900 4500 50  0000 C CNN
	1    4900 4500
	1    0    0    -1  
$EndComp
Wire Wire Line
	4900 4600 4900 4500
Wire Wire Line
	4900 4900 4900 5100
Connection ~ 4900 5100
$Comp
L R R8
U 1 1 58E23149
P 5200 4750
F 0 "R8" V 5280 4750 50  0000 C CNN
F 1 "47k" V 5200 4750 50  0000 C CNN
F 2 "Resistors_SMD:R_0805_HandSoldering" V 5130 4750 50  0001 C CNN
F 3 "" H 5200 4750 50  0000 C CNN
	1    5200 4750
	1    0    0    -1  
$EndComp
$Comp
L VCC #PWR022
U 1 1 58E2314F
P 5200 4500
F 0 "#PWR022" H 5200 4350 50  0001 C CNN
F 1 "VCC" H 5200 4650 50  0000 C CNN
F 2 "" H 5200 4500 50  0000 C CNN
F 3 "" H 5200 4500 50  0000 C CNN
	1    5200 4500
	1    0    0    -1  
$EndComp
Wire Wire Line
	5200 4600 5200 4500
Wire Wire Line
	5200 4900 5200 5200
Connection ~ 5200 5200
Wire Wire Line
	7500 5100 7500 4550
Wire Wire Line
	7500 4550 8150 4550
Wire Wire Line
	7600 5200 7600 4650
Wire Wire Line
	7600 4650 8150 4650
$Comp
L R R15
U 1 1 58E25652
P 2650 4100
F 0 "R15" V 2600 3900 50  0000 C CNN
F 1 "330" V 2650 4100 50  0000 C CNN
F 2 "Resistors_SMD:R_0805_HandSoldering" V 2580 4100 50  0001 C CNN
F 3 "" H 2650 4100 50  0000 C CNN
	1    2650 4100
	0    1    1    0   
$EndComp
$Comp
L R R16
U 1 1 58E256A7
P 2650 4200
F 0 "R16" V 2600 4000 50  0000 C CNN
F 1 "330" V 2650 4200 50  0000 C CNN
F 2 "Resistors_SMD:R_0805_HandSoldering" V 2580 4200 50  0001 C CNN
F 3 "" H 2650 4200 50  0000 C CNN
	1    2650 4200
	0    1    1    0   
$EndComp
$Comp
L R R17
U 1 1 58E256F4
P 2650 4300
F 0 "R17" V 2600 4100 50  0000 C CNN
F 1 "330" V 2650 4300 50  0000 C CNN
F 2 "Resistors_SMD:R_0805_HandSoldering" V 2580 4300 50  0001 C CNN
F 3 "" H 2650 4300 50  0000 C CNN
	1    2650 4300
	0    1    1    0   
$EndComp
$Comp
L R R18
U 1 1 58E25743
P 2650 4400
F 0 "R18" V 2600 4200 50  0000 C CNN
F 1 "330" V 2650 4400 50  0000 C CNN
F 2 "Resistors_SMD:R_0805_HandSoldering" V 2580 4400 50  0001 C CNN
F 3 "" H 2650 4400 50  0000 C CNN
	1    2650 4400
	0    1    1    0   
$EndComp
$Comp
L R R19
U 1 1 58E25794
P 2650 4500
F 0 "R19" V 2600 4300 50  0000 C CNN
F 1 "330" V 2650 4500 50  0000 C CNN
F 2 "Resistors_SMD:R_0805_HandSoldering" V 2580 4500 50  0001 C CNN
F 3 "" H 2650 4500 50  0000 C CNN
	1    2650 4500
	0    1    1    0   
$EndComp
$Comp
L R R20
U 1 1 58E257E7
P 2650 4600
F 0 "R20" V 2600 4400 50  0000 C CNN
F 1 "330" V 2650 4600 50  0000 C CNN
F 2 "Resistors_SMD:R_0805_HandSoldering" V 2580 4600 50  0001 C CNN
F 3 "" H 2650 4600 50  0000 C CNN
	1    2650 4600
	0    1    1    0   
$EndComp
$Comp
L R R21
U 1 1 58E2583C
P 2650 4700
F 0 "R21" V 2600 4500 50  0000 C CNN
F 1 "330" V 2650 4700 50  0000 C CNN
F 2 "Resistors_SMD:R_0805_HandSoldering" V 2580 4700 50  0001 C CNN
F 3 "" H 2650 4700 50  0000 C CNN
	1    2650 4700
	0    1    1    0   
$EndComp
$Comp
L R R22
U 1 1 58E25893
P 2650 4800
F 0 "R22" V 2600 4600 50  0000 C CNN
F 1 "330" V 2650 4800 50  0000 C CNN
F 2 "Resistors_SMD:R_0805_HandSoldering" V 2580 4800 50  0001 C CNN
F 3 "" H 2650 4800 50  0000 C CNN
	1    2650 4800
	0    1    1    0   
$EndComp
Wire Wire Line
	2800 4100 3150 4100
Wire Wire Line
	2800 4200 3150 4200
Wire Wire Line
	2800 4300 3150 4300
Wire Wire Line
	2800 4400 3150 4400
Wire Wire Line
	2800 4500 3150 4500
Wire Wire Line
	2800 4600 3150 4600
Wire Wire Line
	2800 4700 3150 4700
Wire Wire Line
	2800 4800 3150 4800
Text Label 2950 4100 0    60   ~ 0
D0
Text Label 2950 4200 0    60   ~ 0
D1
Text Label 2950 4300 0    60   ~ 0
D2
Text Label 2950 4400 0    60   ~ 0
D3
Text Label 2950 4500 0    60   ~ 0
D4
Text Label 2950 4600 0    60   ~ 0
D5
Text Label 2950 4700 0    60   ~ 0
D6
Text Label 2950 4800 0    60   ~ 0
D7
Text Notes 9800 3900 0    60   ~ 0
Permuted bit order\nto ease placement.
Text Notes 6800 2900 0    60   ~ 0
Permuted bit order\nto ease placement.
$Comp
L CP C4
U 1 1 58FB629D
P 4050 1250
F 0 "C4" H 4075 1350 50  0000 L CNN
F 1 "33uF" H 4075 1150 50  0000 L CNN
F 2 "SMD_Packages:SMD-1206_Pol" H 4088 1100 50  0001 C CNN
F 3 "" H 4050 1250 50  0000 C CNN
	1    4050 1250
	1    0    0    -1  
$EndComp
$Comp
L GND #PWR023
U 1 1 58FB62A3
P 4050 1500
F 0 "#PWR023" H 4050 1250 50  0001 C CNN
F 1 "GND" H 4050 1350 50  0000 C CNN
F 2 "" H 4050 1500 50  0000 C CNN
F 3 "" H 4050 1500 50  0000 C CNN
	1    4050 1500
	1    0    0    -1  
$EndComp
Wire Wire Line
	4050 1400 4050 1500
Wire Wire Line
	4050 1100 4050 1000
Connection ~ 4050 1000
$EndSCHEMATC
