M48
;DRILL file {KiCad 4.0.5+dfsg1-4~bpo8+1} date Sat Apr 22 17:54:08 2017
;FORMAT={-:-/ absolute / inch / decimal}
FMAT,2
INCH,TZ
T1C0.016
%
G90
G05
M72
T1
X4.Y-3.15
X4.Y-3.25
X4.Y-3.3
X4.Y-3.35
X4.Y-3.4
X4.Y-3.45
X4.Y-3.5
X4.Y-3.55
X4.Y-3.6
X4.Y-3.65
X4.Y-3.7
X4.Y-3.75
X4.Y-3.8
X4.Y-3.85
X4.Y-3.9
X4.Y-3.95
X4.Y-4.
X4.Y-4.05
X4.Y-4.1
X4.Y-4.15
X4.Y-4.2
X4.Y-5.
X4.125Y-5.1
X4.475Y-4.75
X4.6Y-4.575
X4.775Y-4.175
X4.825Y-4.125
X4.825Y-4.225
X4.825Y-4.275
X4.825Y-4.325
X4.825Y-4.375
X4.875Y-4.475
X4.95Y-3.55
X4.95Y-3.6
X4.95Y-3.65
X4.975Y-4.475
X4.975Y-4.525
X5.075Y-3.275
X5.075Y-3.425
X5.45Y-4.875
X5.45Y-5.05
X5.625Y-3.825
X5.625Y-3.875
X5.625Y-3.925
X5.625Y-3.975
X5.625Y-4.025
X5.625Y-4.075
X5.625Y-4.125
X5.625Y-4.175
X5.625Y-4.225
X5.625Y-4.275
X5.625Y-4.325
X5.625Y-4.375
X5.625Y-4.425
X5.625Y-4.475
X5.625Y-4.525
X5.625Y-4.575
X5.7Y-3.3
X5.75Y-4.475
X5.75Y-4.875
X5.8469Y-4.125
X5.85Y-3.825
X5.9Y-4.425
X5.925Y-4.875
X5.925Y-5.025
X5.975Y-4.475
X6.025Y-4.425
X6.25Y-4.125
X6.25Y-4.7
X6.25Y-4.875
X6.55Y-3.825
X6.55Y-4.025
X6.55Y-4.7
X6.6Y-4.55
X6.6Y-4.7
X6.625Y-4.35
X6.7Y-3.3
T0
M30
